L'AmaZone il vainquit dernier effroy des Grecs.	L'Amazone il vainquit dernier effroi des Grecs.
Pentaſilée il rua ſur la poudre.	Pentasilée il rua sur la poudre.
Cette illuſtre AmaZone inſtruicte aux ſoins de Mars,	Cette illustre Amazone instruite aux soins de Mars,
Fauche les eſcadrons & braue les haZars:	Fauche les escadrons & brave les hasars:
Veſtant le dur plaſtron ſur ſa ronde mammelle,	Vêtant le dur plastron sur sa ronde mammelle,
Dont le bouton pourprè de graces eſtincelle:	Dont le bouton pourpré de grâces étincelle:
Pour couronner ſon chef de gloire & de lauriers,	Pour couronner son chef de gloire & de lauriers,
Vierge elle oſe affronter les plus fameux guerriers.	Vierge elle ose affronter les plus fameux guerriers.
